toyota camry: 189173
nissan skyline: 189173
subaru forester: 189173
subaru crosstek: 189173
chevy silverado: 189173
dodge cummins: 189173
ford f150: 189173
toyota sienna: 189173
honda accord: 189173
honda crv: 189173
toyota camry: 189246
nissan skyline: 189246
subaru forester: 189246
subaru crosstek: 189246
chevy silverado: 189246
dodge cummins: 189246
ford f150: 189246
toyota sienna: 189246
honda accord: 189246
honda crv: 189246
toyota camry: 189292
nissan skyline: 189292
subaru forester: 189292
subaru crosstek: 189292
chevy silverado: 189292
dodge cummins: 189292
ford f150: 189292
toyota sienna: 189292
honda accord: 189292
honda crv: 189292
